# Blender MTL File: 'kardanadam.blend'
# Material Count: 14

newmtl Material.001
Ns 96.078431
Ka 0.000000 0.000000 0.000000
Kd 0.627692 0.015366 0.000000
Ks 0.500000 0.500000 0.500000
Ni 1.000000
d 1.000000
illum 2

newmtl Material.002
Ns 96.078431
Ka 0.000000 0.000000 0.000000
Kd 0.800000 0.800000 0.800000
Ks 0.500000 0.500000 0.500000
Ni 1.000000
d 1.000000
illum 2

newmtl Material.003
Ns 96.078431
Ka 0.000000 0.000000 0.000000
Kd 0.800000 0.800000 0.800000
Ks 0.500000 0.500000 0.500000
Ni 1.000000
d 1.000000
illum 2

newmtl Material.004
Ns 96.078431
Ka 0.000000 0.000000 0.000000
Kd 0.800000 0.800000 0.800000
Ks 0.500000 0.500000 0.500000
Ni 1.000000
d 1.000000
illum 2

newmtl Material.005
Ns 96.078431
Ka 0.000000 0.000000 0.000000
Kd 0.553912 0.128003 0.000000
Ks 0.500000 0.500000 0.500000
Ni 1.000000
d 1.000000
illum 2

newmtl Material.006
Ns 96.078431
Ka 0.000000 0.000000 0.000000
Kd 0.000000 0.000000 0.000000
Ks 0.500000 0.500000 0.500000
Ni 1.000000
d 1.000000
illum 2

newmtl Material.007
Ns 96.078431
Ka 0.000000 0.000000 0.000000
Kd 0.050976 0.035318 0.000000
Ks 0.500000 0.500000 0.500000
Ni 1.000000
d 1.000000
illum 2

newmtl Material.008
Ns 96.078431
Ka 0.000000 0.000000 0.000000
Kd 0.640000 0.000000 0.005992
Ks 0.500000 0.500000 0.500000
Ni 1.000000
d 1.000000
illum 2

newmtl Material.009
Ns 96.078431
Ka 0.000000 0.000000 0.000000
Kd 0.461539 0.000000 0.591909
Ks 0.500000 0.500000 0.500000
Ni 1.000000
d 1.000000
illum 2

newmtl Material.010
Ns 96.078431
Ka 0.000000 0.000000 0.000000
Kd 0.000000 0.591909 0.540198
Ks 0.500000 0.500000 0.500000
Ni 1.000000
d 1.000000
illum 2

newmtl Material.011
Ns 96.078431
Ka 0.000000 0.000000 0.000000
Kd 0.591909 0.015069 0.000000
Ks 0.500000 0.500000 0.500000
Ni 1.000000
d 1.000000
illum 2

newmtl Material.012
Ns 96.078431
Ka 0.000000 0.000000 0.000000
Kd 0.000000 0.089404 0.591909
Ks 0.500000 0.500000 0.500000
Ni 1.000000
d 1.000000
illum 2

newmtl Material.013
Ns 96.078431
Ka 0.000000 0.000000 0.000000
Kd 0.591909 0.499005 0.000000
Ks 0.500000 0.500000 0.500000
Ni 1.000000
d 1.000000
illum 2

newmtl Material.014
Ns 96.078431
Ka 0.000000 0.000000 0.000000
Kd 0.671909 0.000478 0.351380
Ks 0.500000 0.500000 0.500000
Ni 1.000000
d 1.000000
illum 2
