# Blender MTL File: 'WinterLand.exe.blend'
# Material Count: 25
newmtl 
Ns 0
Ka 0.000000 0.000000 0.000000
Kd 0.8 0.8 0.8
Ks 0.8 0.8 0.8
d 1
illum 2


newmtl Material.001_CARD.tga
Ns 96.078431
Ka 0.000000 0.000000 0.000000
Kd 0.730034 0.719297 0.719297
Ks 0.500000 0.500000 0.500000
Ni 1.000000
d 1.000000
illum 0
map_Kd /tmp/WinterLand.exe.blend/CARD.tga


newmtl Material.001_ChristmasHouse.tga
Ns 96.078431
Ka 0.000000 0.000000 0.000000
Kd 0.730034 0.719297 0.719297
Ks 0.500000 0.500000 0.500000
Ni 1.000000
d 1.000000
illum 0
map_Kd /tmp/WinterLand.exe.blend/ChristmasHouse.tga


newmtl Material.003
Ns 96.078431
Ka 0.000000 0.000000 0.000000
Kd 0.640000 0.640000 0.640000
Ks 0.500000 0.500000 0.500000
Ni 1.000000
d 1.000000
illum 2


newmtl Material.TF.33282_ChristmasHouse.tga
Ns 96.078431
Ka 0.000000 0.000000 0.000000
Kd 0.640000 0.640000 0.640000
Ks 0.500000 0.500000 0.500000
Ni 1.000000
d 1.000000
illum 2
map_Kd /tmp/WinterLand.exe.blend/ChristmasHouse.tga


newmtl Material.TF.513_ChristmasHouse.tga
Ns 96.078431
Ka 0.000000 0.000000 0.000000
Kd 0.640000 0.640000 0.640000
Ks 0.500000 0.500000 0.500000
Ni 1.000000
d 1.000000
illum 2
map_Kd /tmp/WinterLand.exe.blend/ChristmasHouse.tga


newmtl Material.TF.513_MailBox.tga
Ns 96.078431
Ka 0.000000 0.000000 0.000000
Kd 0.640000 0.640000 0.640000
Ks 0.500000 0.500000 0.500000
Ni 1.000000
d 1.000000
illum 2
map_Kd /tmp/WinterLand.exe.blend/MailBox.tga


newmtl Material.TF.514
Ns 96.078431
Ka 0.000000 0.000000 0.000000
Kd 0.640000 0.640000 0.640000
Ks 0.500000 0.500000 0.500000
Ni 1.000000
d 1.000000
illum 2


newmtl Material.TF.514_ChristmasHouse.tga
Ns 96.078431
Ka 0.000000 0.000000 0.000000
Kd 0.640000 0.640000 0.640000
Ks 0.500000 0.500000 0.500000
Ni 1.000000
d 1.000000
illum 2
map_Kd /tmp/WinterLand.exe.blend/ChristmasHouse.tga


newmtl Material.TF.66049_DeerTrack.tga
Ns 96.078431
Ka 0.000000 0.000000 0.000000
Kd 0.640000 0.640000 0.640000
Ks 0.500000 0.500000 0.500000
Ni 1.000000
d 1.000000
illum 2
map_Kd /tmp/WinterLand.exe.blend/DeerTrack.tga


newmtl Material.TF.66050_Lightstga.tga
Ns 96.078431
Ka 0.000000 0.000000 0.000000
Kd 0.640000 0.640000 0.640000
Ks 0.500000 0.500000 0.500000
Ni 1.000000
d 1.000000
illum 2
map_Kd /tmp/WinterLand.exe.blend/Lightstga.tga


newmtl Material.TF.66050_Smoke.tga.001
Ns 96.078431
Ka 0.000000 0.000000 0.000000
Kd 0.640000 0.640000 0.640000
Ks 0.500000 0.500000 0.500000
Ni 1.000000
d 1.000000
illum 2
map_Kd /tmp/WinterLand.exe.blend/Smoke.tga


newmtl Material.TF.66050_Snowflake1.tga.001
Ns 96.078431
Ka 0.000000 0.000000 0.000000
Kd 0.640000 0.640000 0.640000
Ks 0.500000 0.500000 0.500000
Ni 1.000000
d 1.000000
illum 2
map_Kd /tmp/WinterLand.exe.blend/Snowflake1.tga


newmtl Material.TF.66050_Snowflake2.tga.001
Ns 96.078431
Ka 0.000000 0.000000 0.000000
Kd 0.640000 0.640000 0.640000
Ks 0.500000 0.500000 0.500000
Ni 1.000000
d 1.000000
illum 2
map_Kd /tmp/WinterLand.exe.blend/Snowflake2.tga


newmtl Material.TF.66050_Snowflake3.tga.001
Ns 96.078431
Ka 0.000000 0.000000 0.000000
Kd 0.640000 0.640000 0.640000
Ks 0.500000 0.500000 0.500000
Ni 1.000000
d 1.000000
illum 2
map_Kd /tmp/WinterLand.exe.blend/Snowflake3.tga


newmtl Material.TF.66050_Snowflake4.tga
Ns 96.078431
Ka 0.000000 0.000000 0.000000
Kd 0.640000 0.640000 0.640000
Ks 0.500000 0.500000 0.500000
Ni 1.000000
d 1.000000
illum 2
map_Kd /tmp/WinterLand.exe.blend/Snowflake4.tga


newmtl Material.TF.66305_Bush2.tga
Ns 96.078431
Ka 0.000000 0.000000 0.000000
Kd 0.640000 0.640000 0.640000
Ks 0.500000 0.500000 0.500000
Ni 1.000000
d 1.000000
illum 2
map_Kd /tmp/WinterLand.exe.blend/Bush2.tga


newmtl Material.TF.66306_Bush2.tga
Ns 96.078431
Ka 0.000000 0.000000 0.000000
Kd 0.640000 0.640000 0.640000
Ks 0.500000 0.500000 0.500000
Ni 1.000000
d 1.000000
illum 2
map_Kd /tmp/WinterLand.exe.blend/Bush2.tga


newmtl Material.TF.66306_ChristmasTree2.tga
Ns 96.078431
Ka 0.000000 0.000000 0.000000
Kd 0.640000 0.640000 0.640000
Ks 0.500000 0.500000 0.500000
Ni 1.000000
d 1.000000
illum 2
map_Kd /tmp/WinterLand.exe.blend/ChristmasTree2.tga


newmtl Material.TF.66306_DeadTree.tga
Ns 96.078431
Ka 0.000000 0.000000 0.000000
Kd 0.640000 0.640000 0.640000
Ks 0.500000 0.500000 0.500000
Ni 1.000000
d 1.000000
illum 2
map_Kd /tmp/WinterLand.exe.blend/DeadTree.tga


newmtl Material.TF.66306_Lightstga.tga
Ns 96.078431
Ka 0.000000 0.000000 0.000000
Kd 0.640000 0.640000 0.640000
Ks 0.500000 0.500000 0.500000
Ni 1.000000
d 1.000000
illum 2
map_Kd /tmp/WinterLand.exe.blend/Lightstga.tga


newmtl Material_Deer.tga
Ns 96.078431
Ka 0.000000 0.000000 0.000000
Kd 0.640000 0.640000 0.640000
Ks 0.500000 0.500000 0.500000
Ni 1.000000
d 1.000000
illum 0
map_Kd /tmp/WinterLand.exe.blend/Deer.tga


newmtl None_ChristmasHouse.tga
Ns 0
Ka 0.000000 0.000000 0.000000
Kd 0.8 0.8 0.8
Ks 0.8 0.8 0.8
d 1
illum 2
map_Kd /tmp/WinterLand.exe.blend/ChristmasHouse.tga


newmtl None_WinterLand.tga.001
Ns 0
Ka 0.000000 0.000000 0.000000
Kd 0.8 0.8 0.8
Ks 0.8 0.8 0.8
d 1
illum 2
map_Kd C:/Documents and Settings/Ethan  Beckman/My Documents/Blender Scenes/Christmas Scene/WinterLand.tga


newmtl _MailBox.tga
Ns 0
Ka 0.000000 0.000000 0.000000
Kd 0.8 0.8 0.8
Ks 0.8 0.8 0.8
d 1
illum 2
map_Kd /tmp/WinterLand.exe.blend/MailBox.tga


